[gd_resource type="ArrayMesh" load_steps=3 format=2]

[sub_resource type="SpatialMaterial" id=1]
resource_name = "plastic_black"
params_cull_mode = 2
albedo_color = Color( 0.906332, 0.906332, 0.906332, 1 )
roughness = 0.5
emission_enabled = true
emission = Color( 0, 0, 0, 1 )
emission_energy = 1.0
emission_operator = 0
emission_on_uv2 = false

[sub_resource type="SpatialMaterial" id=2]
resource_name = "glass"
params_cull_mode = 2
albedo_color = Color( 0.906332, 0.906332, 0.906332, 1 )
roughness = 0.5
emission_enabled = true
emission = Color( 0, 0, 0, 1 )
emission_energy = 1.0
emission_operator = 0
emission_on_uv2 = false

[resource]
resource_name = "boombox_door"
surfaces/0 = {
"aabb": AABB( -0.0738453, 0, -0.0038453, 0.147691, 0.0986906, 0.00770061 ),
"array_data": PoolByteArray( 52, 60, 151, 189, 0, 0, 0, 0, 128, 1, 124, 59, 0, 129, 0, 0, 127, 0, 0, 127, 0, 0, 0, 60, 52, 60, 151, 61, 0, 0, 0, 0, 128, 1, 124, 187, 0, 129, 0, 0, 127, 0, 0, 127, 0, 0, 0, 60, 52, 60, 151, 189, 0, 0, 0, 0, 128, 1, 124, 187, 0, 129, 0, 0, 127, 0, 0, 127, 0, 0, 0, 60, 52, 60, 151, 189, 0, 0, 0, 0, 128, 1, 124, 59, 0, 129, 0, 0, 127, 0, 0, 127, 0, 0, 0, 60, 52, 60, 151, 61, 0, 0, 0, 0, 128, 1, 124, 59, 0, 129, 0, 0, 127, 0, 0, 127, 0, 0, 0, 60, 52, 60, 151, 61, 0, 0, 0, 0, 128, 1, 124, 187, 0, 129, 0, 0, 127, 0, 0, 127, 0, 0, 0, 60, 51, 60, 151, 189, 76, 30, 202, 61, 128, 1, 124, 187, 129, 0, 0, 0, 127, 0, 0, 127, 0, 0, 0, 60, 52, 60, 151, 189, 0, 0, 0, 0, 128, 1, 124, 59, 129, 0, 0, 0, 127, 0, 0, 127, 0, 0, 0, 60, 52, 60, 151, 189, 0, 0, 0, 0, 128, 1, 124, 187, 129, 0, 0, 0, 127, 0, 0, 127, 0, 0, 0, 60, 51, 60, 151, 189, 76, 30, 202, 61, 128, 1, 124, 187, 129, 0, 0, 0, 127, 0, 0, 127, 0, 0, 0, 60, 51, 60, 151, 189, 76, 30, 202, 61, 128, 1, 124, 59, 129, 0, 0, 0, 127, 0, 0, 127, 0, 0, 0, 60, 52, 60, 151, 189, 0, 0, 0, 0, 128, 1, 124, 59, 129, 0, 0, 0, 127, 0, 0, 127, 0, 0, 0, 60, 53, 60, 151, 61, 76, 30, 202, 61, 128, 1, 124, 59, 0, 127, 0, 0, 127, 0, 0, 127, 0, 0, 0, 60, 51, 60, 151, 189, 76, 30, 202, 61, 128, 1, 124, 187, 0, 127, 0, 0, 127, 0, 0, 127, 0, 0, 0, 60, 53, 60, 151, 61, 76, 30, 202, 61, 128, 1, 124, 187, 0, 127, 0, 0, 127, 0, 0, 127, 0, 0, 0, 60, 53, 60, 151, 61, 76, 30, 202, 61, 128, 1, 124, 59, 0, 127, 0, 0, 127, 0, 0, 127, 0, 0, 0, 60, 51, 60, 151, 189, 76, 30, 202, 61, 128, 1, 124, 59, 0, 127, 0, 0, 127, 0, 0, 127, 0, 0, 0, 60, 51, 60, 151, 189, 76, 30, 202, 61, 128, 1, 124, 187, 0, 127, 0, 0, 127, 0, 0, 127, 0, 0, 0, 60, 53, 60, 151, 61, 76, 30, 202, 61, 128, 1, 124, 59, 127, 0, 0, 0, 127, 0, 0, 127, 0, 0, 0, 60, 52, 60, 151, 61, 0, 0, 0, 0, 128, 1, 124, 187, 127, 0, 0, 0, 127, 0, 0, 127, 0, 0, 0, 60, 52, 60, 151, 61, 0, 0, 0, 0, 128, 1, 124, 59, 127, 0, 0, 0, 127, 0, 0, 127, 0, 0, 0, 60, 53, 60, 151, 61, 76, 30, 202, 61, 128, 1, 124, 59, 127, 0, 0, 0, 127, 0, 0, 127, 0, 0, 0, 60, 53, 60, 151, 61, 76, 30, 202, 61, 128, 1, 124, 187, 127, 0, 0, 0, 127, 0, 0, 127, 0, 0, 0, 60, 52, 60, 151, 61, 0, 0, 0, 0, 128, 1, 124, 187, 127, 0, 0, 0, 127, 0, 0, 127, 0, 0, 0, 60, 51, 60, 151, 189, 76, 30, 202, 61, 128, 1, 124, 59, 0, 0, 127, 0, 127, 0, 0, 129, 0, 0, 0, 60, 226, 140, 92, 189, 9, 215, 163, 60, 128, 1, 124, 59, 0, 0, 127, 0, 127, 0, 0, 129, 0, 0, 0, 60, 52, 60, 151, 189, 0, 0, 0, 0, 128, 1, 124, 59, 0, 0, 127, 0, 127, 0, 0, 129, 0, 0, 0, 60, 51, 60, 151, 189, 76, 30, 202, 61, 128, 1, 124, 59, 0, 0, 127, 0, 127, 0, 0, 129, 0, 0, 0, 60, 225, 140, 92, 189, 138, 40, 161, 61, 128, 1, 124, 59, 0, 0, 127, 0, 127, 0, 0, 129, 0, 0, 0, 60, 226, 140, 92, 189, 9, 215, 163, 60, 128, 1, 124, 59, 0, 0, 127, 0, 127, 0, 0, 129, 0, 0, 0, 60, 229, 140, 92, 61, 9, 215, 163, 60, 128, 1, 124, 59, 0, 0, 127, 0, 127, 0, 0, 129, 0, 0, 0, 60, 53, 60, 151, 61, 76, 30, 202, 61, 128, 1, 124, 59, 0, 0, 127, 0, 127, 0, 0, 129, 0, 0, 0, 60, 52, 60, 151, 61, 0, 0, 0, 0, 128, 1, 124, 59, 0, 0, 127, 0, 127, 0, 0, 129, 0, 0, 0, 60, 230, 140, 92, 61, 138, 40, 161, 61, 128, 1, 124, 59, 0, 0, 127, 0, 127, 0, 0, 129, 0, 0, 0, 60, 53, 60, 151, 61, 76, 30, 202, 61, 128, 1, 124, 59, 0, 0, 127, 0, 127, 0, 0, 129, 0, 0, 0, 60, 229, 140, 92, 61, 9, 215, 163, 60, 128, 1, 124, 59, 0, 0, 127, 0, 127, 0, 0, 129, 0, 0, 0, 60, 226, 140, 92, 189, 9, 215, 163, 60, 128, 1, 124, 59, 0, 0, 127, 0, 127, 0, 0, 129, 0, 0, 0, 60, 52, 60, 151, 61, 0, 0, 0, 0, 128, 1, 124, 59, 0, 0, 127, 0, 127, 0, 0, 129, 0, 0, 0, 60, 52, 60, 151, 189, 0, 0, 0, 0, 128, 1, 124, 59, 0, 0, 127, 0, 127, 0, 0, 129, 0, 0, 0, 60, 226, 140, 92, 189, 9, 215, 163, 60, 128, 1, 124, 59, 0, 0, 127, 0, 127, 0, 0, 129, 0, 0, 0, 60, 229, 140, 92, 61, 9, 215, 163, 60, 128, 1, 124, 59, 0, 0, 127, 0, 127, 0, 0, 129, 0, 0, 0, 60, 52, 60, 151, 61, 0, 0, 0, 0, 128, 1, 124, 59, 0, 0, 127, 0, 127, 0, 0, 129, 0, 0, 0, 60, 51, 60, 151, 189, 76, 30, 202, 61, 128, 1, 124, 59, 0, 0, 127, 0, 127, 0, 0, 129, 0, 0, 0, 60, 230, 140, 92, 61, 138, 40, 161, 61, 128, 1, 124, 59, 0, 0, 127, 0, 127, 0, 0, 129, 0, 0, 0, 60, 225, 140, 92, 189, 138, 40, 161, 61, 128, 1, 124, 59, 0, 0, 127, 0, 127, 0, 0, 129, 0, 0, 0, 60, 51, 60, 151, 189, 76, 30, 202, 61, 128, 1, 124, 59, 0, 0, 127, 0, 127, 0, 0, 129, 0, 0, 0, 60, 53, 60, 151, 61, 76, 30, 202, 61, 128, 1, 124, 59, 0, 0, 127, 0, 127, 0, 0, 129, 0, 0, 0, 60, 230, 140, 92, 61, 138, 40, 161, 61, 128, 1, 124, 59, 0, 0, 127, 0, 127, 0, 0, 129, 0, 0, 0, 60, 226, 140, 92, 189, 9, 215, 163, 60, 128, 1, 124, 187, 0, 0, 129, 0, 127, 0, 0, 127, 0, 0, 0, 60, 51, 60, 151, 189, 76, 30, 202, 61, 128, 1, 124, 187, 0, 0, 129, 0, 127, 0, 0, 127, 0, 0, 0, 60, 52, 60, 151, 189, 0, 0, 0, 0, 128, 1, 124, 187, 0, 0, 129, 0, 127, 0, 0, 127, 0, 0, 0, 60, 225, 140, 92, 189, 138, 40, 161, 61, 128, 1, 124, 187, 0, 0, 129, 0, 127, 0, 0, 127, 0, 0, 0, 60, 51, 60, 151, 189, 76, 30, 202, 61, 128, 1, 124, 187, 0, 0, 129, 0, 127, 0, 0, 127, 0, 0, 0, 60, 226, 140, 92, 189, 9, 215, 163, 60, 128, 1, 124, 187, 0, 0, 129, 0, 127, 0, 0, 127, 0, 0, 0, 60, 53, 60, 151, 61, 76, 30, 202, 61, 128, 1, 124, 187, 0, 0, 129, 0, 127, 0, 0, 127, 0, 0, 0, 60, 229, 140, 92, 61, 9, 215, 163, 60, 128, 1, 124, 187, 0, 0, 129, 0, 127, 0, 0, 127, 0, 0, 0, 60, 52, 60, 151, 61, 0, 0, 0, 0, 128, 1, 124, 187, 0, 0, 129, 0, 127, 0, 0, 127, 0, 0, 0, 60, 53, 60, 151, 61, 76, 30, 202, 61, 128, 1, 124, 187, 0, 0, 129, 0, 127, 0, 0, 127, 0, 0, 0, 60, 230, 140, 92, 61, 138, 40, 161, 61, 128, 1, 124, 187, 0, 0, 129, 0, 127, 0, 0, 127, 0, 0, 0, 60, 229, 140, 92, 61, 9, 215, 163, 60, 128, 1, 124, 187, 0, 0, 129, 0, 127, 0, 0, 127, 0, 0, 0, 60, 229, 140, 92, 61, 9, 215, 163, 60, 128, 1, 124, 187, 0, 0, 129, 0, 127, 0, 0, 127, 0, 0, 0, 60, 52, 60, 151, 189, 0, 0, 0, 0, 128, 1, 124, 187, 0, 0, 129, 0, 127, 0, 0, 127, 0, 0, 0, 60, 52, 60, 151, 61, 0, 0, 0, 0, 128, 1, 124, 187, 0, 0, 129, 0, 127, 0, 0, 127, 0, 0, 0, 60, 229, 140, 92, 61, 9, 215, 163, 60, 128, 1, 124, 187, 0, 0, 129, 0, 127, 0, 0, 127, 0, 0, 0, 60, 226, 140, 92, 189, 9, 215, 163, 60, 128, 1, 124, 187, 0, 0, 129, 0, 127, 0, 0, 127, 0, 0, 0, 60, 52, 60, 151, 189, 0, 0, 0, 0, 128, 1, 124, 187, 0, 0, 129, 0, 127, 0, 0, 127, 0, 0, 0, 60, 53, 60, 151, 61, 76, 30, 202, 61, 128, 1, 124, 187, 0, 0, 129, 0, 127, 0, 0, 127, 0, 0, 0, 60, 225, 140, 92, 189, 138, 40, 161, 61, 128, 1, 124, 187, 0, 0, 129, 0, 127, 0, 0, 127, 0, 0, 0, 60, 230, 140, 92, 61, 138, 40, 161, 61, 128, 1, 124, 187, 0, 0, 129, 0, 127, 0, 0, 127, 0, 0, 0, 60, 53, 60, 151, 61, 76, 30, 202, 61, 128, 1, 124, 187, 0, 0, 129, 0, 127, 0, 0, 127, 0, 0, 0, 60, 51, 60, 151, 189, 76, 30, 202, 61, 128, 1, 124, 187, 0, 0, 129, 0, 127, 0, 0, 127, 0, 0, 0, 60, 225, 140, 92, 189, 138, 40, 161, 61, 128, 1, 124, 187, 0, 0, 129, 0, 127, 0, 0, 127, 0, 0, 0, 60 ),
"array_index_data": PoolByteArray(  ),
"blend_shape_data": [  ],
"format": 97303,
"index_count": 0,
"material": SubResource( 1 ),
"primitive": 4,
"skeleton_aabb": [  ],
"vertex_count": 72
}
surfaces/1 = {
"aabb": AABB( -0.0538453, 0.02, -0.0038453, 0.107691, 0.0587006, 0.00770061 ),
"array_data": PoolByteArray( 225, 140, 92, 189, 138, 40, 161, 61, 128, 1, 124, 59, 0, 0, 127, 0, 127, 0, 0, 129, 0, 0, 0, 60, 229, 140, 92, 61, 9, 215, 163, 60, 128, 1, 124, 59, 0, 0, 127, 0, 127, 0, 0, 129, 0, 0, 0, 60, 226, 140, 92, 189, 9, 215, 163, 60, 128, 1, 124, 59, 0, 0, 127, 0, 127, 0, 0, 129, 0, 0, 0, 60, 225, 140, 92, 189, 138, 40, 161, 61, 128, 1, 124, 59, 0, 0, 127, 0, 127, 0, 0, 129, 0, 0, 0, 60, 230, 140, 92, 61, 138, 40, 161, 61, 128, 1, 124, 59, 0, 0, 127, 0, 127, 0, 0, 129, 0, 0, 0, 60, 229, 140, 92, 61, 9, 215, 163, 60, 128, 1, 124, 59, 0, 0, 127, 0, 127, 0, 0, 129, 0, 0, 0, 60, 230, 140, 92, 61, 138, 40, 161, 61, 128, 1, 124, 187, 0, 0, 129, 0, 127, 0, 0, 127, 0, 0, 0, 60, 226, 140, 92, 189, 9, 215, 163, 60, 128, 1, 124, 187, 0, 0, 129, 0, 127, 0, 0, 127, 0, 0, 0, 60, 229, 140, 92, 61, 9, 215, 163, 60, 128, 1, 124, 187, 0, 0, 129, 0, 127, 0, 0, 127, 0, 0, 0, 60, 230, 140, 92, 61, 138, 40, 161, 61, 128, 1, 124, 187, 0, 0, 129, 0, 127, 0, 0, 127, 0, 0, 0, 60, 225, 140, 92, 189, 138, 40, 161, 61, 128, 1, 124, 187, 0, 0, 129, 0, 127, 0, 0, 127, 0, 0, 0, 60, 226, 140, 92, 189, 9, 215, 163, 60, 128, 1, 124, 187, 0, 0, 129, 0, 127, 0, 0, 127, 0, 0, 0, 60 ),
"array_index_data": PoolByteArray(  ),
"blend_shape_data": [  ],
"format": 97303,
"index_count": 0,
"material": SubResource( 2 ),
"primitive": 4,
"skeleton_aabb": [  ],
"vertex_count": 12
}
