[gd_resource type="ShaderMaterial" load_steps=6 format=2]

[ext_resource path="res://texture/bark_pine/bark_pine_normal.jpg" type="Texture" id=1]
[ext_resource path="res://texture/bark_pine/bark_pine_albedo.jpg" type="Texture" id=2]
[ext_resource path="res://texture/bark_pine/bak_pine_roughness.jpg" type="Texture" id=3]
[ext_resource path="res://texture/bark_pine/bark_pine_displacement.jpg" type="Texture" id=4]
[ext_resource path="res://material/tree_old.shader" type="Shader" id=5]

[resource]
shader = ExtResource( 5 )
shader_param/wind = Vector2( 1, 0 )
shader_param/horizontal_amplitude = 0.1
shader_param/vertical_amplitude = 0.1
shader_param/horizontal_frequency = 0.5
shader_param/vertical_frequency = 2.0
shader_param/depth_scale = 1.0
shader_param/albedo = ExtResource( 2 )
shader_param/roughness = ExtResource( 3 )
shader_param/normalmap = ExtResource( 1 )
shader_param/ao = ExtResource( 4 )
shader_param/depth = ExtResource( 4 )
