[gd_resource type="SpatialMaterial" load_steps=5 format=2]

[ext_resource path="res://texture/wood/wood_roughness.jpg" type="Texture" id=1]
[ext_resource path="res://texture/wood/wood_albedo.jpg" type="Texture" id=2]
[ext_resource path="res://texture/wood/wood_normal.jpg" type="Texture" id=3]
[ext_resource path="res://texture/wood/wood_displacement.jpg" type="Texture" id=4]

[resource]
albedo_texture = ExtResource( 2 )
roughness_texture = ExtResource( 1 )
normal_enabled = true
normal_scale = 1.0
normal_texture = ExtResource( 3 )
depth_enabled = true
depth_scale = 0.01
depth_deep_parallax = false
depth_flip_tangent = false
depth_flip_binormal = false
depth_texture = ExtResource( 4 )
