[gd_scene load_steps=5 format=2]

[ext_resource path="res://ui/mobile_control/joystick.gd" type="Script" id=1]
[ext_resource path="res://texture/joystick/range.svg" type="Texture" id=2]
[ext_resource path="res://texture/joystick/stick.svg" type="Texture" id=3]

[sub_resource type="CircleShape2D" id=1]
radius = 126.689

[node name="joystick" type="Node2D"]
script = ExtResource( 1 )
deadzone_radius = 0.2

[node name="range" type="Sprite" parent="."]
position = Vector2( 145, 392 )
texture = ExtResource( 2 )

[node name="Area2D" type="Area2D" parent="range"]

[node name="CollisionShape2D" type="CollisionShape2D" parent="range/Area2D"]
shape = SubResource( 1 )

[node name="stick" type="Sprite" parent="range"]
texture = ExtResource( 3 )
[connection signal="input_event" from="range/Area2D" to="." method="_on_range_input_event"]
