[gd_resource type="ShaderMaterial" load_steps=5 format=2]

[ext_resource path="res://island/noise.tres" type="OpenSimplexNoise" id=1]
[ext_resource path="res://island/sea.shader" type="Shader" id=2]

[sub_resource type="NoiseTexture" id=1]
width = 1024
height = 1024
seamless = true
noise = ExtResource( 1 )

[sub_resource type="NoiseTexture" id=2]
width = 1024
height = 1024
seamless = true
as_normalmap = true
bump_strength = 18.0
noise = ExtResource( 1 )

[resource]
shader = ExtResource( 2 )
shader_param/tint = Vector3( 0.01, 0.05, 0.119 )
shader_param/alpha = 1.0
shader_param/rim = 0.0
shader_param/texture_scale = 50.0
shader_param/height_scale = 1.0
shader_param/noise = SubResource( 1 )
shader_param/normalmap = SubResource( 2 )
