[gd_scene load_steps=5 format=2]

[ext_resource path="res://material/tree_aspen.tres" type="Material" id=1]
[ext_resource path="res://material/branch_aspen.tres" type="Material" id=2]
[ext_resource path="res://mesh/aspen_1.glb" type="PackedScene" id=3]

[sub_resource type="CylinderShape" id=1]
radius = 0.32996
height = 32.9711

[node name="aspen_1" instance=ExtResource( 3 )]

[node name="tree" parent="." index="0"]
material/0 = ExtResource( 1 )

[node name="branches" parent="tree" index="0"]
material/0 = ExtResource( 2 )

[node name="StaticBody" type="StaticBody" parent="tree" index="1"]

[node name="CollisionShape" type="CollisionShape" parent="tree/StaticBody" index="0"]
transform = Transform( 1, 0, 0, 0, 1, 0, 0, 0, 1, 0, 16.484, 0 )
shape = SubResource( 1 )
