# Blender MTL File: 'scene.blend'
# Material Count: 1

newmtl rock_mossy
Ns 225.000000
Ka 1.000000 1.000000 1.000000
Kd 0.800000 0.800000 0.800000
Ks 0.500000 0.500000 0.500000
Ke 0.000000 0.000000 0.000000
Ni 1.450000
d 1.000000
illum 2
map_Kd /home/yassine/Code/Godot/yeet/texture/rock_mossy/rock_mossy_albedo.jpg
